400
204 19:53 23:53
173 02:12 20:55
554 20:39 20:46
138 10:51 23:51
481 15:53 19:56
213 05:14 08:14
25 12:15 14:21
146 08:16 17:18
19 18:35 22:39
497 18:37 22:50
432 06:58 15:59
44 06:17 15:52
621 12:54 13:54
849 20:49 20:59
156 04:55 19:58
369 16:42 18:42
109 05:46 12:58
813 09:36 15:46
380 09:54 20:56
363 04:30 11:44
22 00:25 01:35
40 19:16 22:23
58 19:49 21:58
250 20:32 21:48
136 20:50 22:51
615 05:01 13:04
825 08:03 16:15
54 00:14 11:22
145 06:40 06:41
131 07:46 22:46
585 04:38 05:43
558 15:33 23:56
266 04:15 04:48
439 21:43 21:55
194 19:42 22:43
70 15:54 20:59
35 15:31 15:49
668 20:39 23:42
333 17:44 19:49
491 00:34 10:45
880 09:14 13:23
94 16:10 18:34
571 17:42 22:58
541 03:26 05:40
372 18:42 22:50
514 06:40 12:52
885 04:56 19:58
965 19:15 19:29
840 18:36 20:46
671 05:51 12:51
638 00:49 22:53
349 20:17 23:46
733 17:56 23:56
133 19:37 23:41
905 17:52 18:57
661 04:58 22:59
66 09:11 11:50
353 04:05 15:53
237 09:17 22:57
738 13:23 13:24
439 06:32 19:57
394 12:28 17:36
232 02:52 18:52
664 04:23 21:32
321 15:57 22:59
675 09:21 18:41
291 11:16 11:31
278 20:05 21:14
11 07:58 14:59
394 12:48 20:49
755 15:01 20:51
161 20:56 23:59
844 04:09 07:57
360 09:25 10:29
893 19:46 19:59
120 11:19 19:52
719 15:30 17:42
764 12:10 16:36
350 08:56 13:57
232 07:48 15:50
101 00:40 08:41
664 11:20 20:36
833 18:27 18:47
326 11:58 16:58
959 01:53 06:57
538 06:07 14:12
355 20:19 20:59
117 03:28 03:57
55 10:32 20:44
212 17:20 19:29
601 11:15 22:37
690 15:12 15:17
326 14:49 16:49
436 05:18 19:51
804 11:24 23:56
160 15:53 21:54
184 04:36 07:42
417 14:08 20:56
245 00:17 15:49
127 01:37 08:58
495 11:55 17:58
626 21:41 21:58
833 01:37 12:52
202 04:16 04:34
63 01:36 03:40
555 01:41 04:42
197 15:47 21:51
848 01:40 21:44
653 04:16 23:19
306 18:47 21:52
794 05:49 11:58
458 10:13 22:39
685 08:40 23:54
640 08:37 10:55
661 08:17 19:17
217 10:22 15:59
919 19:00 20:08
624 04:01 05:09
845 11:44 22:51
65 04:05 05:12
317 19:20 19:24
319 11:54 13:58
1 10:10 19:19
408 15:31 20:56
107 16:50 22:51
112 01:30 13:48
457 10:44 11:47
390 08:33 21:51
908 18:27 21:50
7 14:20 20:22
405 18:46 23:50
836 20:14 23:21
16 18:09 18:51
444 19:56 19:57
33 11:27 14:38
853 10:58 22:58
46 00:01 21:45
971 13:44 18:46
403 09:26 20:31
929 16:46 19:53
720 21:45 22:47
371 14:49 15:49
0 15:26 23:36
812 01:37 20:57
834 05:16 21:25
303 14:41 18:49
325 12:18 16:57
920 02:56 04:56
555 01:53 02:56
666 18:42 19:46
603 07:23 22:53
6 19:55 21:59
858 03:19 12:24
482 18:11 22:48
9 16:19 23:34
386 06:34 11:39
488 07:33 17:50
374 02:20 09:41
720 14:45 16:51
464 08:41 22:53
445 06:23 09:36
73 18:06 19:17
84 15:29 16:39
819 15:38 17:59
46 21:01 23:24
98 10:34 17:46
795 00:37 07:40
164 12:44 16:47
691 15:29 18:48
115 12:47 21:53
146 12:56 18:58
220 10:35 18:46
743 16:38 16:44
384 11:33 19:39
132 02:19 07:42
577 20:18 21:19
56 14:12 19:59
321 21:13 23:19
536 11:12 11:33
41 14:43 22:44
634 02:09 04:25
978 15:17 22:21
399 09:52 22:55
868 18:00 23:08
955 18:56 20:58
491 08:07 12:46
966 21:46 23:59
126 10:17 18:33
683 16:04 23:06
971 14:33 15:51
956 05:08 22:39
964 21:50 21:51
488 07:30 21:57
427 13:20 21:43
972 05:25 19:35
276 10:04 13:58
449 02:49 04:55
509 20:13 20:41
139 12:36 22:37
608 18:11 22:56
809 01:45 19:58
949 07:55 15:58
66 08:17 23:50
824 20:56 20:56
510 14:35 20:53
890 05:58 23:59
994 10:12 14:54
639 05:11 08:38
695 09:46 23:50
930 10:38 23:56
264 18:04 21:34
259 12:52 14:57
320 19:10 19:11
572 14:00 15:16
957 17:44 18:52
213 01:05 10:40
127 03:09 22:30
592 08:07 15:59
874 14:52 14:59
485 12:46 21:49
473 21:48 21:50
632 13:32 23:52
351 00:00 16:30
756 07:23 17:41
48 10:14 18:26
350 20:06 21:49
25 13:13 17:53
821 19:25 22:44
401 12:02 19:09
71 18:31 21:50
667 08:36 08:56
126 04:28 06:33
152 04:04 04:50
905 15:49 23:58
403 20:39 20:49
989 14:23 18:45
697 01:26 18:45
808 17:51 23:58
124 04:31 13:49
260 17:08 17:30
14 15:28 22:35
33 20:22 23:30
60 20:06 22:18
377 06:10 13:42
426 17:11 21:22
227 18:09 22:50
551 10:17 12:23
39 02:34 06:59
245 09:13 23:36
782 04:32 09:39
979 16:47 16:57
335 04:05 12:30
14 08:02 15:24
356 20:29 23:47
68 00:20 01:50
669 17:04 21:04
930 02:11 14:33
303 03:40 07:55
691 05:47 23:47
172 11:36 13:57
50 06:38 22:59
478 18:35 20:51
716 06:57 12:57
556 11:40 13:56
121 08:03 12:31
526 03:41 19:48
135 00:04 09:56
837 13:27 21:39
44 08:48 12:48
360 10:52 21:57
13 11:22 19:47
58 19:07 21:45
623 00:44 10:58
713 01:40 06:46
263 03:56 14:57
931 09:34 10:40
759 12:46 13:52
277 03:24 14:33
372 15:49 19:58
492 21:19 21:21
826 19:20 20:46
602 20:28 20:40
351 09:07 13:11
677 10:28 12:36
864 07:51 11:54
385 15:31 19:40
534 05:28 18:30
332 08:43 08:59
996 09:06 22:33
796 06:44 12:52
407 06:18 09:27
54 00:45 14:56
819 05:27 12:44
941 12:05 15:47
351 16:35 17:54
470 07:18 19:56
949 15:07 20:32
197 10:55 18:58
681 02:21 22:33
696 14:43 14:58
77 12:24 20:25
496 21:05 23:43
548 19:50 23:58
202 00:29 02:59
43 15:35 17:41
597 00:23 10:44
414 04:29 19:54
800 14:19 20:33
20 05:43 08:54
832 20:38 22:56
722 14:57 21:59
373 20:33 22:59
596 07:12 07:30
205 16:38 22:57
123 04:14 10:20
259 12:22 15:25
759 15:39 15:47
499 03:20 11:31
5 17:17 17:48
861 13:28 22:31
390 11:18 21:29
598 07:48 16:58
157 17:53 18:56
282 09:54 20:57
669 13:38 14:58
802 06:37 21:51
565 21:10 23:42
7 01:33 13:47
60 19:30 21:31
796 13:36 13:43
450 18:51 19:55
334 00:30 17:48
705 03:28 15:50
718 04:53 15:58
468 20:28 23:47
979 07:55 10:56
732 10:02 15:17
618 15:22 17:22
504 15:11 20:44
660 02:24 06:49
423 20:34 23:57
876 14:46 21:49
471 09:43 10:59
334 05:21 19:52
878 07:20 17:44
324 08:32 13:44
463 21:36 22:57
394 19:49 22:51
948 02:01 18:42
972 19:26 19:28
461 12:08 14:38
234 16:21 19:39
431 17:18 21:51
113 02:08 22:40
270 19:38 19:51
780 00:55 09:55
31 09:52 14:55
552 06:55 22:55
824 00:16 19:45
989 10:40 21:47
887 12:36 14:54
691 07:07 23:17
651 13:42 16:56
205 02:45 22:54
203 19:46 23:54
503 11:51 23:59
688 14:03 21:32
643 10:37 13:37
568 15:17 17:26
271 12:38 16:48
841 14:36 18:44
605 21:26 22:42
520 05:14 11:59
81 12:02 22:41
952 03:58 18:58
631 16:53 21:54
35 07:09 10:25
254 12:28 22:34
214 12:23 14:53
917 21:01 21:42
751 17:53 22:56
979 09:21 18:41
85 18:17 23:30
657 18:11 19:21
406 16:45 16:46
934 05:55 18:57
266 13:27 13:50
247 10:12 21:45
509 10:13 11:15
921 04:33 04:47
638 07:51 14:55
161 04:01 07:47
638 06:01 09:45
828 10:10 20:25
706 07:10 19:56
909 05:36 07:59
330 15:20 22:57
144 17:18 22:28
231 00:46 12:49
854 20:23 22:27
