1000
204 19:53 23:53
173 02:12 20:55
554 20:39 20:46
138 10:51 23:51
481 15:53 19:56
213 05:14 08:14
25 12:15 14:21
146 08:16 17:18
19 18:35 22:39
497 18:37 22:50
432 06:58 15:59
44 06:17 15:52
621 12:54 13:54
849 20:49 20:59
156 04:55 19:58
369 16:42 18:42
109 05:46 12:58
813 09:36 15:46
380 09:54 20:56
363 04:30 11:44
22 00:25 01:35
40 19:16 22:23
58 19:49 21:58
250 20:32 21:48
136 20:50 22:51
615 05:01 13:04
825 08:03 16:15
54 00:14 11:22
145 06:40 06:41
131 07:46 22:46
585 04:38 05:43
558 15:33 23:56
266 04:15 04:48
439 21:43 21:55
194 19:42 22:43
70 15:54 20:59
35 15:31 15:49
668 20:39 23:42
333 17:44 19:49
491 00:34 10:45
880 09:14 13:23
94 16:10 18:34
571 17:42 22:58
541 03:26 05:40
372 18:42 22:50
514 06:40 12:52
885 04:56 19:58
965 19:15 19:29
840 18:36 20:46
671 05:51 12:51
638 00:49 22:53
349 20:17 23:46
733 17:56 23:56
133 19:37 23:41
905 17:52 18:57
661 04:58 22:59
66 09:11 11:50
353 04:05 15:53
237 09:17 22:57
738 13:23 13:24
439 06:32 19:57
394 12:28 17:36
232 02:52 18:52
664 04:23 21:32
321 15:57 22:59
675 09:21 18:41
291 11:16 11:31
278 20:05 21:14
11 07:58 14:59
394 12:48 20:49
755 15:01 20:51
161 20:56 23:59
844 04:09 07:57
360 09:25 10:29
893 19:46 19:59
120 11:19 19:52
719 15:30 17:42
764 12:10 16:36
350 08:56 13:57
232 07:48 15:50
101 00:40 08:41
664 11:20 20:36
833 18:27 18:47
326 11:58 16:58
959 01:53 06:57
538 06:07 14:12
355 20:19 20:59
117 03:28 03:57
55 10:32 20:44
212 17:20 19:29
601 11:15 22:37
690 15:12 15:17
326 14:49 16:49
436 05:18 19:51
804 11:24 23:56
160 15:53 21:54
184 04:36 07:42
417 14:08 20:56
245 00:17 15:49
127 01:37 08:58
495 11:55 17:58
626 21:41 21:58
833 01:37 12:52
202 04:16 04:34
63 01:36 03:40
555 01:41 04:42
197 15:47 21:51
848 01:40 21:44
653 04:16 23:19
306 18:47 21:52
794 05:49 11:58
458 10:13 22:39
685 08:40 23:54
640 08:37 10:55
661 08:17 19:17
217 10:22 15:59
919 19:00 20:08
624 04:01 05:09
845 11:44 22:51
65 04:05 05:12
317 19:20 19:24
319 11:54 13:58
1 10:10 19:19
408 15:31 20:56
107 16:50 22:51
112 01:30 13:48
457 10:44 11:47
390 08:33 21:51
908 18:27 21:50
7 14:20 20:22
405 18:46 23:50
836 20:14 23:21
16 18:09 18:51
444 19:56 19:57
33 11:27 14:38
853 10:58 22:58
46 00:01 21:45
971 13:44 18:46
403 09:26 20:31
929 16:46 19:53
720 21:45 22:47
371 14:49 15:49
0 15:26 23:36
812 01:37 20:57
834 05:16 21:25
303 14:41 18:49
325 12:18 16:57
920 02:56 04:56
555 01:53 02:56
666 18:42 19:46
603 07:23 22:53
6 19:55 21:59
858 03:19 12:24
482 18:11 22:48
9 16:19 23:34
386 06:34 11:39
488 07:33 17:50
374 02:20 09:41
720 14:45 16:51
464 08:41 22:53
445 06:23 09:36
73 18:06 19:17
84 15:29 16:39
819 15:38 17:59
46 21:01 23:24
98 10:34 17:46
795 00:37 07:40
164 12:44 16:47
691 15:29 18:48
115 12:47 21:53
146 12:56 18:58
220 10:35 18:46
743 16:38 16:44
384 11:33 19:39
132 02:19 07:42
577 20:18 21:19
56 14:12 19:59
321 21:13 23:19
536 11:12 11:33
41 14:43 22:44
634 02:09 04:25
978 15:17 22:21
399 09:52 22:55
868 18:00 23:08
955 18:56 20:58
491 08:07 12:46
966 21:46 23:59
126 10:17 18:33
683 16:04 23:06
971 14:33 15:51
956 05:08 22:39
964 21:50 21:51
488 07:30 21:57
427 13:20 21:43
972 05:25 19:35
276 10:04 13:58
449 02:49 04:55
509 20:13 20:41
139 12:36 22:37
608 18:11 22:56
809 01:45 19:58
949 07:55 15:58
66 08:17 23:50
824 20:56 20:56
510 14:35 20:53
890 05:58 23:59
994 10:12 14:54
639 05:11 08:38
695 09:46 23:50
930 10:38 23:56
264 18:04 21:34
259 12:52 14:57
320 19:10 19:11
572 14:00 15:16
957 17:44 18:52
213 01:05 10:40
127 03:09 22:30
592 08:07 15:59
874 14:52 14:59
485 12:46 21:49
473 21:48 21:50
632 13:32 23:52
351 00:00 16:30
756 07:23 17:41
48 10:14 18:26
350 20:06 21:49
25 13:13 17:53
821 19:25 22:44
401 12:02 19:09
71 18:31 21:50
667 08:36 08:56
126 04:28 06:33
152 04:04 04:50
905 15:49 23:58
403 20:39 20:49
989 14:23 18:45
697 01:26 18:45
808 17:51 23:58
124 04:31 13:49
260 17:08 17:30
14 15:28 22:35
33 20:22 23:30
60 20:06 22:18
377 06:10 13:42
426 17:11 21:22
227 18:09 22:50
551 10:17 12:23
39 02:34 06:59
245 09:13 23:36
782 04:32 09:39
979 16:47 16:57
335 04:05 12:30
14 08:02 15:24
356 20:29 23:47
68 00:20 01:50
669 17:04 21:04
930 02:11 14:33
303 03:40 07:55
691 05:47 23:47
172 11:36 13:57
50 06:38 22:59
478 18:35 20:51
716 06:57 12:57
556 11:40 13:56
121 08:03 12:31
526 03:41 19:48
135 00:04 09:56
837 13:27 21:39
44 08:48 12:48
360 10:52 21:57
13 11:22 19:47
58 19:07 21:45
623 00:44 10:58
713 01:40 06:46
263 03:56 14:57
931 09:34 10:40
759 12:46 13:52
277 03:24 14:33
372 15:49 19:58
492 21:19 21:21
826 19:20 20:46
602 20:28 20:40
351 09:07 13:11
677 10:28 12:36
864 07:51 11:54
385 15:31 19:40
534 05:28 18:30
332 08:43 08:59
996 09:06 22:33
796 06:44 12:52
407 06:18 09:27
54 00:45 14:56
819 05:27 12:44
941 12:05 15:47
351 16:35 17:54
470 07:18 19:56
949 15:07 20:32
197 10:55 18:58
681 02:21 22:33
696 14:43 14:58
77 12:24 20:25
496 21:05 23:43
548 19:50 23:58
202 00:29 02:59
43 15:35 17:41
597 00:23 10:44
414 04:29 19:54
800 14:19 20:33
20 05:43 08:54
832 20:38 22:56
722 14:57 21:59
373 20:33 22:59
596 07:12 07:30
205 16:38 22:57
123 04:14 10:20
259 12:22 15:25
759 15:39 15:47
499 03:20 11:31
5 17:17 17:48
861 13:28 22:31
390 11:18 21:29
598 07:48 16:58
157 17:53 18:56
282 09:54 20:57
669 13:38 14:58
802 06:37 21:51
565 21:10 23:42
7 01:33 13:47
60 19:30 21:31
796 13:36 13:43
450 18:51 19:55
334 00:30 17:48
705 03:28 15:50
718 04:53 15:58
468 20:28 23:47
979 07:55 10:56
732 10:02 15:17
618 15:22 17:22
504 15:11 20:44
660 02:24 06:49
423 20:34 23:57
876 14:46 21:49
471 09:43 10:59
334 05:21 19:52
878 07:20 17:44
324 08:32 13:44
463 21:36 22:57
394 19:49 22:51
948 02:01 18:42
972 19:26 19:28
461 12:08 14:38
234 16:21 19:39
431 17:18 21:51
113 02:08 22:40
270 19:38 19:51
780 00:55 09:55
31 09:52 14:55
552 06:55 22:55
824 00:16 19:45
989 10:40 21:47
887 12:36 14:54
691 07:07 23:17
651 13:42 16:56
205 02:45 22:54
203 19:46 23:54
503 11:51 23:59
688 14:03 21:32
643 10:37 13:37
568 15:17 17:26
271 12:38 16:48
841 14:36 18:44
605 21:26 22:42
520 05:14 11:59
81 12:02 22:41
952 03:58 18:58
631 16:53 21:54
35 07:09 10:25
254 12:28 22:34
214 12:23 14:53
917 21:01 21:42
751 17:53 22:56
979 09:21 18:41
85 18:17 23:30
657 18:11 19:21
406 16:45 16:46
934 05:55 18:57
266 13:27 13:50
247 10:12 21:45
509 10:13 11:15
921 04:33 04:47
638 07:51 14:55
161 04:01 07:47
638 06:01 09:45
828 10:10 20:25
706 07:10 19:56
909 05:36 07:59
330 15:20 22:57
144 17:18 22:28
231 00:46 12:49
854 20:23 22:27
953 13:30 23:43
576 12:41 19:49
709 14:57 21:58
323 09:33 12:46
523 20:55 23:58
334 13:01 19:27
70 15:39 15:47
475 20:16 23:19
13 19:17 21:52
225 16:32 17:42
718 08:08 10:52
0 21:15 22:52
203 02:48 13:55
350 13:23 23:57
706 05:47 12:56
996 04:20 13:52
372 08:03 08:28
472 16:58 23:58
263 02:34 11:43
402 19:34 20:47
250 06:33 13:48
772 03:33 04:55
626 09:50 10:59
220 07:08 10:33
282 05:58 15:59
825 04:31 22:53
253 12:13 13:35
208 21:34 23:43
962 00:37 17:52
82 00:29 22:36
317 00:40 07:51
447 03:13 05:59
838 10:07 12:37
218 14:20 21:26
68 17:53 22:55
646 12:33 21:37
632 05:33 17:38
422 02:13 06:34
297 05:10 19:22
908 03:22 12:33
695 04:38 08:48
435 08:33 16:37
770 10:52 14:55
828 01:02 21:13
887 07:15 12:15
595 02:43 09:44
570 05:14 18:35
955 21:54 23:59
535 07:15 22:19
878 18:52 20:56
80 02:14 03:19
287 12:06 16:45
793 09:00 21:52
215 05:24 20:31
241 07:45 12:45
465 06:24 22:54
729 16:46 17:47
840 13:15 13:30
752 09:24 22:28
35 19:39 21:41
723 19:51 23:59
692 16:46 16:54
247 10:32 22:59
401 16:53 16:53
400 04:03 05:28
891 09:12 09:19
52 09:53 23:54
583 02:04 06:30
719 20:13 20:21
217 05:15 06:31
393 00:55 13:59
294 10:44 13:46
942 12:58 23:59
641 13:18 17:44
605 11:36 12:37
800 09:51 10:53
951 06:55 13:56
970 02:54 18:57
232 02:42 18:45
333 06:04 13:16
590 18:32 19:34
581 01:57 09:57
439 03:51 10:58
111 19:52 21:59
783 08:25 18:35
355 04:26 22:55
352 01:46 19:51
613 18:07 20:26
963 13:06 21:19
876 14:16 15:44
509 08:10 16:20
161 20:00 20:34
207 03:54 15:59
298 13:53 16:56
395 18:13 19:43
982 15:23 19:38
729 21:08 21:21
452 12:51 14:53
0 05:50 14:56
184 03:48 17:48
884 11:37 15:56
868 18:05 19:36
543 05:21 08:38
44 15:55 17:55
725 00:34 20:50
907 00:19 14:23
150 19:52 20:59
280 10:00 14:33
319 07:53 07:59
428 00:06 18:31
348 02:39 15:51
297 02:46 11:52
613 05:22 19:39
504 03:42 23:54
615 10:05 23:26
975 11:51 22:58
845 11:46 23:56
143 07:36 14:44
626 10:07 18:52
160 01:40 23:54
300 20:06 23:25
16 07:48 13:48
654 04:00 18:11
885 15:00 22:15
434 07:57 21:57
589 05:37 09:48
578 11:12 11:33
156 18:22 18:45
829 10:49 19:58
643 09:28 16:42
733 21:47 21:52
975 19:36 23:48
542 18:16 19:46
486 15:06 21:50
749 08:03 16:23
725 16:02 20:04
78 19:49 23:50
399 12:30 17:45
732 16:31 16:34
571 21:13 21:34
24 16:05 23:05
180 02:58 03:59
996 13:54 22:58
44 14:06 19:45
712 16:33 18:52
727 16:13 21:56
578 10:27 13:27
677 05:51 19:53
26 11:05 19:59
556 08:18 22:22
927 14:07 15:41
265 13:50 23:53
509 11:21 18:54
99 17:08 22:10
353 17:34 19:55
74 09:47 11:48
446 10:05 12:19
89 12:38 13:49
969 00:06 23:29
957 04:38 21:58
75 00:47 07:55
439 08:05 19:58
237 13:16 16:28
681 18:57 18:59
595 19:54 19:58
93 09:37 09:49
507 12:30 15:33
338 09:23 15:57
944 10:22 15:32
725 12:13 22:55
8 05:36 08:53
332 03:10 03:35
783 19:28 22:44
906 21:50 22:58
869 11:55 23:55
839 18:51 21:54
281 16:02 21:30
404 02:24 03:49
731 12:11 12:33
616 19:06 19:16
976 02:32 19:42
724 02:00 23:47
206 16:50 20:56
837 09:37 19:55
3 15:42 20:47
256 17:28 23:57
912 03:17 10:50
285 16:06 17:31
239 13:28 23:37
21 19:19 19:49
463 17:37 23:56
325 00:55 21:56
22 12:47 19:49
975 08:21 11:58
8 12:58 16:59
888 12:49 18:57
917 13:08 18:17
451 11:56 17:56
936 09:17 10:56
459 14:13 20:52
175 01:58 12:58
481 04:30 04:30
401 12:09 14:45
476 07:30 11:39
306 01:21 14:59
803 15:19 17:43
337 14:54 15:58
333 10:49 23:57
583 10:27 11:30
119 12:50 23:58
673 03:02 07:51
30 15:20 23:58
137 20:11 21:25
828 06:58 16:59
424 11:33 17:47
922 12:16 22:41
86 05:40 12:40
280 06:20 14:27
646 02:28 11:33
920 18:44 19:58
117 19:16 23:22
278 00:49 11:56
721 08:10 19:24
935 07:55 21:56
889 04:33 06:59
224 10:10 23:58
10 05:34 12:49
289 17:38 18:41
691 09:25 09:39
881 21:47 23:49
514 03:39 08:45
590 02:05 04:22
228 12:21 14:47
737 00:36 22:43
621 21:52 21:54
347 19:09 19:33
139 21:14 21:16
922 20:57 21:57
781 10:47 21:50
133 14:29 21:42
743 14:11 23:53
413 06:20 23:33
81 18:38 20:58
892 17:55 21:55
240 06:27 09:34
76 06:10 12:17
517 01:45 20:58
560 07:31 18:45
867 21:33 21:38
627 00:37 05:40
258 10:46 11:51
760 04:15 04:28
885 06:31 09:48
837 20:19 20:58
49 17:09 19:19
742 16:29 22:55
267 07:38 22:40
805 05:34 14:49
168 12:24 21:55
103 08:33 23:42
25 20:01 21:20
962 11:00 16:17
484 01:08 03:26
424 17:07 21:44
298 10:30 22:55
315 02:58 05:59
557 12:11 23:48
314 12:46 23:48
187 15:51 19:56
947 14:45 22:48
6 21:28 22:45
301 14:53 19:59
423 07:38 15:58
552 06:18 10:43
549 02:13 18:39
768 05:18 09:50
800 10:46 14:52
643 08:32 20:46
347 04:22 04:33
368 16:13 17:33
661 06:52 12:52
417 15:25 22:39
664 13:35 16:55
829 01:36 12:49
580 11:40 14:57
750 01:07 09:22
829 09:56 17:57
544 20:00 22:31
113 10:58 20:58
607 02:40 04:56
943 12:38 22:44
485 21:18 22:28
127 14:53 16:57
301 15:18 21:45
958 20:43 21:50
932 06:52 07:58
793 12:33 21:53
916 08:24 11:57
175 04:06 22:16
958 18:19 21:46
39 12:06 12:19
771 02:06 05:25
549 13:52 15:56
950 21:52 21:52
66 17:23 20:28
134 10:57 13:58
266 05:27 09:36
617 20:43 23:45
42 01:58 09:59
844 14:39 17:57
72 19:35 23:59
497 18:09 18:29
496 02:54 04:57
308 17:03 22:28
276 06:09 22:36
666 10:02 10:16
188 08:45 23:57
711 05:49 21:55
299 13:25 19:46
879 12:17 16:23
643 02:22 06:42
107 11:27 11:53
726 09:23 20:34
930 09:53 15:57
243 10:53 22:59
778 02:32 08:40
11 01:32 11:47
630 19:21 20:40
4 21:22 22:46
424 02:28 10:43
834 00:30 10:37
951 05:32 20:57
920 03:56 21:57
547 02:20 08:58
958 12:02 23:48
528 05:35 20:47
409 03:16 07:47
618 05:29 05:46
968 08:49 14:54
731 04:13 20:35
380 05:02 16:22
558 11:34 13:40
194 17:12 18:54
803 04:52 18:54
431 10:20 16:43
680 06:03 21:04
100 12:21 22:48
528 04:49 10:55
398 14:36 17:37
293 13:36 23:48
987 12:19 20:26
953 21:01 22:43
378 15:13 23:44
480 09:37 15:59
231 17:03 17:32
994 13:51 17:55
674 08:01 15:56
977 12:39 16:48
724 05:31 16:48
354 07:46 22:52
288 08:49 16:55
10 02:42 21:44
690 17:08 17:20
822 17:05 17:12
804 11:46 22:59
188 06:50 12:58
784 20:01 20:15
549 12:43 19:49
333 19:15 20:56
988 02:56 18:59
732 01:11 06:20
208 19:40 22:55
744 07:49 07:50
423 15:16 18:32
741 13:39 15:45
132 03:51 21:55
643 11:22 11:57
210 21:14 22:43
967 12:33 23:56
412 17:52 17:54
136 16:00 17:42
145 11:53 18:55
773 02:30 14:55
949 06:55 09:58
294 07:10 14:31
590 15:19 22:24
304 17:18 19:54
850 06:25 06:56
377 07:33 09:53
382 13:26 23:36
879 04:11 08:32
658 06:57 07:57
740 16:49 21:58
612 11:17 23:51
843 14:29 20:39
67 17:27 22:54
137 03:40 21:47
471 12:01 23:59
372 10:11 13:16
46 13:35 15:48
171 05:36 15:51
163 06:47 08:53
843 16:29 16:36
352 06:13 13:43
270 14:41 20:57
402 08:00 15:28
223 19:41 23:54
119 15:52 16:58
863 21:06 21:56
103 00:15 23:26
272 17:50 21:53
732 15:24 21:24
943 07:09 16:39
323 08:51 17:52
670 04:19 15:58
866 14:36 14:58
103 13:00 19:22
12 00:53 14:56
848 06:35 14:54
959 09:21 17:51
819 08:52 21:59
716 13:05 13:14
949 09:40 22:41
713 18:15 21:25
207 11:45 22:53
628 07:48 13:54
342 09:40 10:48
898 02:29 18:43
692 12:35 16:40
513 13:47 15:53
807 05:37 11:52
81 20:04 20:38
213 02:44 02:56
54 03:53 05:59
134 16:18 20:55
479 20:52 20:52
596 18:43 21:54
18 16:05 23:19
295 20:10 23:39
339 19:45 22:55
143 16:03 23:53
113 13:07 23:13
69 16:55 19:57
631 11:00 12:38
880 02:22 20:28
416 00:02 00:24
60 13:38 21:51
462 03:58 03:59
947 01:06 08:14
216 13:01 18:35
320 20:01 23:46
158 01:25 07:39
86 16:54 18:56
531 09:40 13:52
150 03:57 05:59
63 15:50 16:56
457 00:14 21:16
735 18:43 21:57
758 18:06 22:36
652 04:33 18:39
455 11:20 16:37
363 19:44 22:57
678 09:00 16:46
994 05:55 09:57
607 18:30 23:34
29 05:53 18:53
326 00:57 16:58
29 03:33 04:47
45 08:26 11:52
132 01:38 10:58
193 09:33 17:48
412 17:01 17:17
4 07:47 14:57
794 06:26 20:39
194 05:53 08:56
531 08:17 14:46
870 12:45 18:59
6 08:55 18:58
866 06:09 10:20
267 21:04 21:05
798 12:05 15:23
440 19:57 22:58
114 12:39 19:54
269 15:38 17:58
197 14:03 16:07
372 12:47 15:53
693 20:39 22:50
18 04:34 10:57
163 08:48 15:50
171 07:01 09:57
30 13:33 17:47
55 13:36 18:38
265 20:58 21:58
320 00:13 16:35
533 02:18 12:19
996 17:11 23:17
269 06:05 06:26
464 10:10 11:41
854 04:52 08:58
169 14:24 19:38
829 01:15 09:21
577 01:09 11:35
863 03:29 03:49
430 11:18 18:54
756 03:21 16:50
817 06:34 17:57
650 08:44 13:50
896 17:20 18:31
361 11:19 15:44
213 17:26 22:46
561 21:12 21:39
398 00:04 16:09
393 02:58 10:59
614 19:40 22:47
620 03:49 20:50
855 18:38 22:58
466 17:20 17:49
627 11:57 23:59
821 11:53 18:57
688 12:40 12:53
65 00:46 02:46
193 04:01 13:59
673 08:53 16:55
466 03:37 06:46
4 03:27 17:35
127 04:19 09:30
48 05:13 23:57
576 06:13 11:58
951 02:55 04:58
664 05:10 16:57
10 00:30 16:59
981 20:16 20:37
165 04:05 05:10
652 03:49 09:54
83 06:08 16:38
225 04:33 04:50
375 00:29 17:46
241 01:20 16:51
625 05:29 16:38
700 16:33 17:49
272 15:45 18:52
315 16:49 20:51
649 03:34 08:44
304 03:38 21:52
528 19:38 23:41
62 21:02 23:46
600 06:21 12:55
672 08:50 14:54
639 03:12 18:47
341 06:25 14:46
575 06:37 06:41
759 08:06 22:56
84 03:54 04:59
385 05:12 22:29
566 08:03 18:14
864 21:51 22:51
286 06:10 20:44
71 01:04 06:29
443 05:54 08:57
501 05:38 13:57
334 01:30 14:47
277 14:47 23:48
481 01:36 21:45
454 01:21 03:26
269 08:28 20:30
456 16:12 17:52
933 01:53 14:54
446 01:52 09:53
40 09:39 22:46
784 04:46 04:57
319 00:18 19:35
615 20:21 23:33
64 13:42 16:53
681 19:52 19:53
31 19:54 19:58
341 20:21 22:42
30 00:34 18:44
360 10:45 23:49
61 12:04 21:34
822 05:15 06:39
363 19:29 22:30
412 03:02 23:28
416 03:11 17:34
273 03:53 08:54
80 07:57 19:57
569 05:51 15:56
964 15:08 23:38
687 10:30 23:32
333 13:31 17:47
377 20:17 21:26
834 00:20 12:20
748 12:31 12:36
519 01:46 06:48
442 20:21 23:26
546 06:56 17:56
364 01:14 15:46
43 17:20 20:47
473 03:28 21:48
233 16:42 23:58
403 02:41 07:57
