100
204 19:53 23:53
173 02:12 20:55
554 20:39 20:46
138 10:51 23:51
481 15:53 19:56
213 05:14 08:14
25 12:15 14:21
146 08:16 17:18
19 18:35 22:39
497 18:37 22:50
432 06:58 15:59
44 06:17 15:52
621 12:54 13:54
849 20:49 20:59
156 04:55 19:58
369 16:42 18:42
109 05:46 12:58
813 09:36 15:46
380 09:54 20:56
363 04:30 11:44
22 00:25 01:35
40 19:16 22:23
58 19:49 21:58
250 20:32 21:48
136 20:50 22:51
615 05:01 13:04
825 08:03 16:15
54 00:14 11:22
145 06:40 06:41
131 07:46 22:46
585 04:38 05:43
558 15:33 23:56
266 04:15 04:48
439 21:43 21:55
194 19:42 22:43
70 15:54 20:59
35 15:31 15:49
668 20:39 23:42
333 17:44 19:49
491 00:34 10:45
880 09:14 13:23
94 16:10 18:34
571 17:42 22:58
541 03:26 05:40
372 18:42 22:50
514 06:40 12:52
885 04:56 19:58
965 19:15 19:29
840 18:36 20:46
671 05:51 12:51
638 00:49 22:53
349 20:17 23:46
733 17:56 23:56
133 19:37 23:41
905 17:52 18:57
661 04:58 22:59
66 09:11 11:50
353 04:05 15:53
237 09:17 22:57
738 13:23 13:24
439 06:32 19:57
394 12:28 17:36
232 02:52 18:52
664 04:23 21:32
321 15:57 22:59
675 09:21 18:41
291 11:16 11:31
278 20:05 21:14
11 07:58 14:59
394 12:48 20:49
755 15:01 20:51
161 20:56 23:59
844 04:09 07:57
360 09:25 10:29
893 19:46 19:59
120 11:19 19:52
719 15:30 17:42
764 12:10 16:36
350 08:56 13:57
232 07:48 15:50
101 00:40 08:41
664 11:20 20:36
833 18:27 18:47
326 11:58 16:58
959 01:53 06:57
538 06:07 14:12
355 20:19 20:59
117 03:28 03:57
55 10:32 20:44
212 17:20 19:29
601 11:15 22:37
690 15:12 15:17
326 14:49 16:49
436 05:18 19:51
804 11:24 23:56
160 15:53 21:54
184 04:36 07:42
417 14:08 20:56
245 00:17 15:49
127 01:37 08:58
